<svg width="35" height="34" viewBox="0 0 35 34" fill="none" xmlns="http://www.w3.org/2000/svg">
<path d="M13.6401 17.4749L15.7932 19.628L21.0558 14.3688" stroke="#171321" stroke-width="0.673684" stroke-miterlimit="10"/>
<path d="M17.3651 26.7369C22.7439 26.7369 27.1042 22.3768 27.1042 16.9983C27.1042 11.6198 22.7439 7.2597 17.3651 7.2597C11.9863 7.2597 7.62598 11.6198 7.62598 16.9983C7.62598 22.3768 11.9863 26.7369 17.3651 26.7369Z" stroke="#171321" stroke-width="0.673684" stroke-miterlimit="10"/>
<path d="M2.11621 21.9441C3.64317 26.6221 7.3023 30.5384 12.3423 32.194C20.7458 34.9556 29.7962 30.3923 32.5614 21.9998C33.1597 20.1842 33.4136 18.3373 33.3614 16.5287" stroke="#171321" stroke-width="0.673684" stroke-miterlimit="10"/>
<path d="M32.506 11.8299C30.9373 7.25272 27.3129 3.43727 22.3564 1.80606C13.9529 -0.955531 4.89901 3.6077 2.13379 11.9968C1.53553 13.8089 1.28162 15.6523 1.33379 17.4574" stroke="#171321" stroke-width="0.673684" stroke-miterlimit="10"/>
<path d="M5.30261 23.0711L2.06435 22.0067L1 25.238" stroke="#171321" stroke-width="0.673684" stroke-miterlimit="10"/>
<path d="M29.3931 10.9257L32.6313 11.99L33.6957 8.75873" stroke="#171321" stroke-width="0.673684" stroke-miterlimit="10"/>
</svg>
