<svg width="92" height="38" viewBox="0 0 92 38" fill="none" xmlns="http://www.w3.org/2000/svg">
<g clip-path="url(#clip0_126_12183)">
<path fill-rule="evenodd" clip-rule="evenodd" d="M27.0566 18.543C27.0566 25.853 21.2636 31.7783 14.1174 31.7783C6.9712 31.7783 1.17822 25.8519 1.17822 18.543C1.17822 11.2341 6.9712 5.30769 14.1174 5.30769C21.2636 5.30769 27.0566 11.2331 27.0566 18.543Z" fill="#D33833"/>
<path d="M1.70565 21.8195C1.70565 21.8195 0.768785 8.01824 13.4877 7.62409L12.5983 6.14452L5.69767 8.46191L3.72692 10.7298L2.00176 14.0326L1.01538 17.877L1.3115 20.44" fill="#EF3D3A"/>
<path d="M5.25506 9.51398C2.98517 11.8364 1.58038 15.0442 1.58038 18.5925C1.58038 22.1409 2.99527 25.3477 5.25506 27.6701C7.51485 29.9925 10.6569 31.4256 14.1184 31.4256C17.5798 31.4256 20.7097 29.9925 22.9817 27.6701C25.2536 25.3477 26.6573 22.1399 26.6573 18.5925C26.6573 15.0452 25.2425 11.8374 22.9817 9.51398C20.7209 7.19053 17.5798 5.75845 14.1184 5.75845C10.6569 5.75845 7.529 7.19154 5.25506 9.51398V9.51398ZM4.679 28.231C2.2666 25.763 0.774902 22.3531 0.774902 18.5915C0.774902 14.8299 2.2666 11.419 4.679 8.95207C7.09139 6.4851 10.4295 4.95398 14.1163 4.95499C17.8031 4.956 21.1403 6.48409 23.5527 8.95207C25.9651 11.42 27.4578 14.8299 27.4568 18.5915C27.4558 22.3531 25.9651 25.763 23.5527 28.231C21.1403 30.699 17.8031 32.2392 14.1173 32.2392C10.4316 32.2392 7.0924 30.699 4.68001 28.231" fill="#231F20"/>
<path fill-rule="evenodd" clip-rule="evenodd" d="M19.5648 18.6158L17.5941 18.9119L14.9321 19.208L13.2069 19.2585L11.5313 19.208L10.2498 18.8038L9.11585 17.5708L8.22851 15.0573L8.03143 14.5146L6.84898 14.1104L6.15872 12.9764L5.66553 11.3594L6.20824 9.92934L7.48973 9.48466L8.52462 9.97785L9.01781 11.0623L9.60904 10.9632L9.80611 10.7166L9.61712 9.59583L9.56659 8.16578L9.86271 6.19503L9.8526 5.06918L10.7521 3.63205L12.3287 2.49812L15.0877 1.31567L18.1439 1.76035L20.8059 3.68259L22.0389 5.65333L22.8272 7.08339L23.0243 10.6327L22.433 13.6889L21.3486 16.4005L20.3137 17.8305" fill="#F0D6B7"/>
<path fill-rule="evenodd" clip-rule="evenodd" d="M17.8881 27.1435L10.84 27.4386V28.6211L11.4312 32.7617L11.1351 33.1073L6.20618 31.4327L5.86054 30.8414L5.36735 25.2728L4.23341 21.9205L3.98682 21.1322L7.93033 18.4207L9.16331 17.9275L10.2477 19.2585L11.1846 20.0974L12.269 20.441L12.7622 20.5885L13.3534 23.1515L13.7981 23.6942L14.932 23.29L14.1437 24.818L18.4319 26.8393L17.8902 27.1354" fill="#335061"/>
<path fill-rule="evenodd" clip-rule="evenodd" d="M6.20621 9.94044L7.4877 9.49576L8.52259 9.98895L9.01578 11.0734L9.60701 10.9743L9.75456 10.3831L9.45844 9.24916L9.75456 6.53762L9.50797 5.05906L10.3953 4.02416L12.3175 2.49608L11.7748 1.75629L9.06328 3.0873L7.92935 3.97464L7.2886 5.35517L6.30222 6.68618L6.0061 8.26278L6.20318 9.93842" fill="#6D6B6D"/>
<path fill-rule="evenodd" clip-rule="evenodd" d="M8.22637 5.30564C8.22637 5.30564 8.96616 3.48144 11.9233 2.5941C14.8804 1.70676 12.0708 1.95336 12.0708 1.95336L8.86712 3.18633L7.63414 4.41931L7.09244 5.4057L8.22637 5.30665M6.7468 9.5958C6.7468 9.5958 5.71292 6.14447 9.65744 5.65229L9.50988 5.06107L6.78722 5.69979L6.00903 8.26479L6.20611 9.94043L6.74781 9.59681" fill="#DCD9D8"/>
<path fill-rule="evenodd" clip-rule="evenodd" d="M8.32544 14.179L8.97225 13.5524C8.97225 13.5524 9.26331 13.5868 9.31283 13.9314C9.36235 14.2761 9.50789 17.3828 11.6383 19.0604C11.8404 19.212 10.0617 18.8138 10.0617 18.8138L8.48512 16.3479M17.3959 13.2432C17.3959 13.2432 17.5111 11.7495 17.9134 11.8637C18.3156 11.9779 18.3156 12.3811 18.3156 12.3811C18.3156 12.3811 17.3383 13.0138 17.406 13.2432" fill="#F7E4CD"/>
<path d="M21.4869 7.78175C21.4869 7.78175 20.6744 7.95356 20.5996 8.66909C20.5248 9.38463 21.4869 8.81665 21.6345 8.76814M15.5222 7.82218C15.5222 7.82218 14.4377 7.96973 14.4377 8.66101C14.4377 9.35229 15.6707 9.30175 16.0143 9.00665" fill="#F7E4CD"/>
<path fill-rule="evenodd" clip-rule="evenodd" d="M8.80849 11.0157C8.80849 11.0157 6.93477 9.88181 6.73669 10.9652C6.5386 12.0486 6.09594 12.8379 7.0328 13.9719L6.39206 13.7748L5.80083 12.2467L5.60376 10.7681L6.7377 9.58569L8.01919 9.68473L8.75897 10.276L8.8095 11.0157M9.70594 7.90904C9.70594 7.90904 10.5448 3.57139 14.7834 2.73458C18.2731 2.04431 20.1074 2.88213 20.7967 3.67144C20.7967 3.67144 17.691 -0.0254774 14.7329 1.10846C11.7747 2.24239 9.617 4.32128 9.65743 5.65229L9.70796 7.92016M21.1413 4.17373C21.1413 4.17373 19.7123 4.12319 19.6627 5.4067C19.6627 5.4067 19.6627 5.60378 19.7608 5.81096C19.7608 5.81096 20.8947 4.52947 21.585 5.21974M14.8723 5.93224C14.8723 5.93224 14.6267 3.96452 12.9491 5.10856C11.8647 5.84835 11.9637 6.88325 12.1608 7.07931C12.3579 7.27537 12.3043 7.67356 12.464 7.40069C12.6237 7.12782 12.565 6.24048 13.1067 5.9858C13.6484 5.73112 14.5378 5.46431 14.8824 5.92213" fill="#F7E4CD"/>
<path fill-rule="evenodd" clip-rule="evenodd" d="M10.2477 19.2565L5.61495 21.3273C5.61495 21.3273 7.53719 28.9677 6.55182 31.3326L5.86155 31.086L5.81102 28.1774L4.52953 22.6563L3.98682 21.1282L8.81767 17.874L10.2467 19.2535M10.7247 23.483L11.3817 24.2855V27.2426H10.5934L10.4953 24.9262C10.4953 24.6796 10.5934 23.7923 10.5934 23.7923M10.7409 27.6863L8.52256 27.7843L9.16331 28.229L10.7399 28.4756" fill="#49728B"/>
<path fill-rule="evenodd" clip-rule="evenodd" d="M18.3318 27.193L20.156 27.1425L20.6007 31.6772L18.728 31.9238L18.3237 27.192" fill="#335061"/>
<path fill-rule="evenodd" clip-rule="evenodd" d="M18.824 27.1931L21.583 27.0455L22.717 24.0389C22.717 23.8913 23.7033 19.8983 23.7033 19.8983L21.485 17.5819L21.0403 17.1776L19.8579 18.3601V22.9443L18.824 27.1931Z" fill="#335061"/>
<path fill-rule="evenodd" clip-rule="evenodd" d="M20.0569 26.8484L18.3318 27.192L18.5784 28.5726C19.2191 28.8687 20.3035 28.0794 20.3035 28.0794M20.1075 18.2216L23.5578 20.7846L23.6568 19.6021L21.0443 17.1766L20.1075 18.2115" fill="#49728B"/>
<path fill-rule="evenodd" clip-rule="evenodd" d="M12.4508 36.9043L11.4402 32.7627L10.9328 29.7075L10.8398 27.4386L15.4585 27.193H18.3317L18.0689 32.3695L18.5136 36.3616L18.4631 37.1013L14.7167 37.3975L12.4488 36.9043" fill="white"/>
<path fill-rule="evenodd" clip-rule="evenodd" d="M17.6921 27.1435C17.6921 27.1435 17.4455 32.2705 18.1853 35.9179C18.1853 35.9179 16.7067 36.8548 14.5369 37.1003L18.6775 36.9528L19.1706 36.6567L18.5794 28.5716L18.4319 26.8464" fill="#DCD9D8"/>
<path fill-rule="evenodd" clip-rule="evenodd" d="M20.6835 31.2851L22.6058 30.7424L26.2542 30.5453L26.7969 28.8697L25.8105 25.9611L24.6766 25.8135L23.1 26.3067L21.587 27.0445L20.7836 26.8969L20.157 27.1425" fill="white"/>
<path fill-rule="evenodd" clip-rule="evenodd" d="M20.6482 30.2987C20.6482 30.2987 21.9297 29.7075 22.1268 29.757L21.5851 27.0455L22.2258 26.7989L22.6705 29.659L25.6771 29.8065C25.6771 29.8065 26.2684 28.6726 26.1218 27.4902L26.6645 29.0668L26.7151 29.9541L25.9268 31.1365L25.0394 31.3336L23.5609 31.2831L23.0677 30.6423L21.3425 30.8889L20.7998 31.086" fill="#DCD9D8"/>
<path d="M18.7127 26.799L17.6283 24.0399L16.4944 22.4229C16.4944 22.4229 16.741 21.7326 17.0856 21.7326H18.2195L19.304 22.1369L19.2059 23.9611L18.7127 26.799Z" fill="white"/>
<path fill-rule="evenodd" clip-rule="evenodd" d="M18.9229 25.8722C18.9229 25.8722 17.5424 23.2102 17.5424 22.816C17.5424 22.816 17.789 22.2248 18.1336 22.3713C18.4782 22.5179 19.218 22.913 19.218 22.913V21.9762L17.5424 21.6305L16.4084 21.7781L18.3307 26.3128L18.7349 26.3633" fill="#DCD9D8"/>
<path d="M12.8944 19.3566L11.53 19.208L10.2485 18.8038V19.2484L10.8751 19.9387L12.8459 20.826" fill="white"/>
<path fill-rule="evenodd" clip-rule="evenodd" d="M10.6912 19.5051C10.6912 19.5051 12.2193 20.1459 12.7125 19.9983L12.763 20.5895L11.3835 20.2944L10.5447 19.7032L10.6922 19.5061" fill="#DCD9D8"/>
<path fill-rule="evenodd" clip-rule="evenodd" d="M20.6784 21.8902C19.8416 21.866 19.0867 21.7659 18.4247 21.58C18.4692 21.3091 18.3843 21.0423 18.453 20.8472C18.6369 20.7159 18.9462 20.7159 19.2251 20.6855C18.9576 20.5597 18.656 20.5256 18.3671 20.5885C18.361 20.4005 18.266 20.2833 18.2256 20.1368C18.6955 19.969 19.8062 18.8684 20.4308 19.2333C20.7279 19.4051 20.8553 20.3955 20.8775 20.8776C20.8977 21.2768 20.8411 21.68 20.6784 21.8912" fill="#D33833"/>
<path d="M20.6784 21.8902C19.8416 21.866 19.0867 21.7659 18.4247 21.58C18.4692 21.3091 18.3843 21.0423 18.453 20.8472C18.6369 20.7159 18.9462 20.7159 19.2251 20.6855C18.9576 20.5597 18.656 20.5256 18.3671 20.5885C18.361 20.4005 18.266 20.2833 18.2256 20.1368C18.6955 19.969 19.8062 18.8684 20.4308 19.2333C20.7279 19.4051 20.8553 20.3955 20.8775 20.8776C20.8977 21.2768 20.8411 21.68 20.6784 21.8912V21.8902Z" stroke="#D33833" stroke-width="0.36625"/>
<path fill-rule="evenodd" clip-rule="evenodd" d="M16.6784 20.5229L16.6713 20.7149C16.4106 20.8867 15.9882 20.8847 15.7011 21.0181C16.0637 21.0298 16.4195 21.1198 16.7441 21.2818L16.7259 21.7599C16.2469 22.0873 15.8103 22.5755 15.2463 22.8817C14.9795 23.0272 14.0437 23.4012 13.7607 23.3345C13.599 23.2971 13.5859 23.098 13.5222 22.91C13.3858 22.5078 13.0715 21.869 13.0432 21.2626C13.0078 20.4986 12.932 19.2181 13.7546 19.3758C14.4186 19.5021 15.1918 19.8083 15.7052 20.0893C16.0185 20.2611 16.2004 20.4733 16.6784 20.5097" fill="#D33833"/>
<path d="M16.6784 20.5229L16.6713 20.7149C16.4106 20.8867 15.9882 20.8847 15.7011 21.0181C16.0637 21.0298 16.4195 21.1198 16.7441 21.2818L16.7259 21.7599C16.2469 22.0873 15.8103 22.5755 15.2463 22.8817C14.9795 23.0272 14.0437 23.4012 13.7607 23.3345C13.599 23.2971 13.5859 23.098 13.5222 22.91C13.3858 22.5078 13.0715 21.869 13.0432 21.2626C13.0078 20.4986 12.932 19.2181 13.7546 19.3758C14.4186 19.5021 15.1918 19.8083 15.7052 20.0893C16.0185 20.2611 16.2004 20.4733 16.6784 20.5097V20.5229Z" stroke="#D33833" stroke-width="0.36625"/>
<path fill-rule="evenodd" clip-rule="evenodd" d="M17.1533 21.4355C17.0805 21.0191 16.9956 20.8998 17.029 20.538C18.1386 19.7982 18.3468 21.8094 17.1533 21.4355Z" fill="#D33833"/>
<path d="M17.1533 21.4355C17.0805 21.0191 16.9956 20.8998 17.029 20.538C18.1386 19.7982 18.3468 21.8094 17.1533 21.4355Z" stroke="#D33833" stroke-width="0.36625"/>
<path fill-rule="evenodd" clip-rule="evenodd" d="M18.7613 21.771C18.7613 21.771 18.4157 21.2778 18.6622 21.1302C18.9088 20.9827 19.1554 21.1302 19.303 20.8836C19.4505 20.637 19.303 20.4794 19.3535 20.1934C19.4041 19.9074 19.6496 19.8477 19.8962 19.7891C20.1428 19.7305 20.8331 19.6416 20.9311 19.8882L20.635 19.0008L20.0438 18.8037L18.1711 19.8882L18.072 20.4309V21.5163M13.5848 23.3991L13.3827 21.0928C13.2786 19.9458 13.6586 20.1459 14.653 20.1459C14.8046 20.1459 15.5889 20.3278 15.6435 20.442C15.9123 20.9908 15.1937 20.8695 15.9527 21.2828C16.5935 21.6325 17.7254 21.0807 17.4667 20.2924C17.3221 20.1206 16.7117 20.2388 16.4924 20.1257L15.3372 19.5263C14.8471 19.2717 13.7152 18.9018 13.1927 19.2565C11.8788 20.1661 13.2766 22.4057 13.7485 23.3445" fill="#EF3D3A"/>
<path fill-rule="evenodd" clip-rule="evenodd" d="M14.8723 5.93228C13.5282 5.62909 12.851 6.49419 12.4539 7.40175C12.09 7.31382 12.2345 6.81861 12.3265 6.56696C12.567 5.906 13.5363 5.02574 14.3276 5.14499C14.6682 5.19552 15.129 5.50882 14.8713 5.93329M21.4283 7.4634L21.492 7.46542C21.7952 8.09606 22.058 8.76409 22.442 9.32095C22.1853 9.92733 20.4995 10.4478 20.5248 9.37451C20.8886 9.21483 21.5193 9.34217 21.8427 9.13802C21.6557 8.62462 21.3859 8.18802 21.4384 7.46239M15.5798 7.47856C15.8678 8.00712 15.9618 8.56196 16.3711 8.96015C16.555 9.14005 16.9138 9.35834 16.7349 9.86973C16.6945 9.98797 16.3893 10.2507 16.2144 10.3023C15.5747 10.4913 14.0921 10.3427 14.5974 9.5443C15.127 9.56856 15.8385 9.88792 16.2347 9.50388C15.9315 9.01877 15.3888 8.05664 15.5878 7.49068M21.1888 12.8471C20.2247 13.4666 19.1503 14.1407 17.5707 13.983C17.2332 13.6798 17.1058 13.0371 17.4323 12.6055C17.6041 12.9087 17.4959 13.4383 17.9709 13.5202C18.8674 13.6738 19.9114 12.9724 20.5551 12.7268C20.9553 12.0527 20.5208 11.8051 20.1509 11.3725C19.4131 10.4832 18.4247 9.38159 18.4611 8.0526C18.7592 7.83632 18.7845 8.38207 18.828 8.48212C19.212 9.39169 20.1822 10.5337 20.8897 11.3058C21.0635 11.4958 21.3495 11.6778 21.3808 11.8031C21.4819 12.1669 21.1423 12.6055 21.1807 12.8481M8.48104 12.1952C8.17785 12.0234 8.1071 11.2634 7.75338 11.2422C7.24604 11.2119 7.34912 12.2275 7.34104 12.8218C6.99237 12.5055 6.93072 11.5302 7.18742 11.0289C6.88423 10.8854 6.76497 11.1876 6.60327 11.2937C6.81146 9.78079 8.82668 10.5923 8.48306 12.1962M21.8013 13.4767C21.3525 14.3307 20.7178 15.2716 19.401 15.2989C19.3747 15.023 19.3535 14.6036 19.402 14.4378C20.4086 14.3408 21.019 13.8284 21.8002 13.4777M15.4939 14.0305C16.3327 14.4722 17.8769 14.5197 19.018 14.4853C19.0786 14.7349 19.0786 15.0442 19.0786 15.3494C17.6111 15.4222 15.8769 15.0594 15.4908 14.0295M15.3342 14.8542C15.9153 16.3125 17.9113 16.1448 19.594 16.1044C19.5202 16.2933 19.3595 16.5086 19.1594 16.6097C18.6198 16.829 17.1321 16.9957 16.3842 16.5975C15.9092 16.3449 15.604 15.7749 15.3433 15.4404C15.218 15.2787 14.5924 14.8663 15.3332 14.8643" fill="#231F20"/>
<path fill-rule="evenodd" clip-rule="evenodd" d="M21.1181 22.8958L18.9756 26.2916C19.3141 25.2951 19.4607 23.6265 19.5112 22.3551C20.2207 22.0236 20.8271 22.4299 21.1282 22.8958" fill="#81B0C4"/>
<path fill-rule="evenodd" clip-rule="evenodd" d="M24.7847 27.091C24.0217 27.2426 23.4861 27.9854 22.7412 27.9379C23.1505 27.3618 23.8671 27.1294 24.7847 27.091ZM25.1203 28.2835C24.4987 28.3492 23.768 28.4503 23.1374 28.3977C23.4355 27.9429 24.5866 28.0986 25.1203 28.2835ZM25.3365 29.3144C24.6372 29.3295 23.77 29.3154 23.105 29.2598C23.5093 28.8374 24.8838 29.1032 25.3365 29.3144" fill="#231F20"/>
<path fill-rule="evenodd" clip-rule="evenodd" d="M19.8043 32.1311C19.9053 33.0083 20.253 33.8976 20.2085 34.8598C19.8225 34.9912 19.6001 35.1044 19.0827 35.1023L18.9695 32.2574C19.2242 32.2746 19.5991 32.0755 19.8043 32.13" fill="#DCD9D8"/>
<path fill-rule="evenodd" clip-rule="evenodd" d="M18.6764 19.1959C18.3257 19.4253 18.0266 19.7012 17.69 19.9559C16.9421 19.9933 16.5349 19.9053 15.9861 19.4748C15.9962 19.4404 16.0508 19.4546 16.0528 19.4142C16.8532 19.7709 17.8699 19.2686 18.6774 19.1969" fill="#F0D6B7"/>
<path fill-rule="evenodd" clip-rule="evenodd" d="M14.4761 24.6594C14.6954 23.7074 15.5575 23.2142 16.3397 22.6886C17.1482 23.7134 17.6384 25.0303 18.1791 26.3027C16.9016 25.9186 15.5969 25.292 14.4771 24.6594" fill="#81B0C4"/>
<path fill-rule="evenodd" clip-rule="evenodd" d="M18.9685 32.2594C18.9362 33.0376 19.0453 34.2867 19.0817 35.1043C19.5992 35.1054 19.8215 34.9912 20.2076 34.8618C20.251 33.9017 19.9044 33.0123 19.8033 32.1331C19.5992 32.0785 19.2232 32.2776 18.9685 32.2604V32.2594ZM10.9067 27.8298C11.2482 30.9678 11.7425 33.6066 12.649 36.3858C14.6622 36.9973 17.0887 37.0498 18.8675 36.499C18.541 34.9305 18.6835 33.0204 18.4935 31.3468L18.2257 27.5387C16.07 27.09 13.0229 27.4336 10.9067 27.8298V27.8298ZM18.7351 27.5589C18.7169 28.9071 18.7957 30.2371 18.8988 31.5863L20.248 31.3508C20.0913 30.0512 20.1115 28.5898 19.7932 27.4397C19.4253 27.4427 19.1019 27.4356 18.7351 27.5579V27.5589ZM21.3607 27.3416C21.1151 27.285 20.8291 27.3396 20.5946 27.3437L21.0666 30.8081C21.4355 30.8182 21.6326 30.6464 21.9357 30.5858C21.9519 29.5731 21.8468 28.1784 21.3597 27.3396L21.3607 27.3416ZM25.3365 30.9739C26.1067 30.7869 26.5897 29.844 26.3745 28.8758C26.23 28.2249 25.9722 27 25.6973 26.5837C25.4952 26.2754 24.9424 25.8732 24.5018 26.1551C23.7842 26.614 22.5229 26.7474 22.0004 27.3022C22.2632 28.1744 22.344 29.374 22.4522 30.4787C23.3476 30.5342 24.4492 30.2321 25.194 30.5534C24.6746 30.7222 23.9995 30.7232 23.5507 30.9678C23.9176 31.1447 24.7767 31.1093 25.3376 30.9729L25.3365 30.9739ZM18.1772 26.2926C17.6365 25.0212 17.1463 23.7033 16.3378 22.6785C15.5556 23.2041 14.6945 23.6963 14.4742 24.6493C15.594 25.283 16.8997 25.9075 18.1762 26.2926H18.1772ZM19.5112 22.3551C19.4607 23.6265 19.3152 25.2961 18.9756 26.2916C19.7841 25.2607 20.436 24.0631 21.1181 22.8958C20.8281 22.4309 20.2207 22.0226 19.5011 22.3551H19.5112ZM18.0003 21.8195C17.6941 21.7862 17.4344 22.1712 17.0362 22.0055L16.7694 22.3137C17.6486 23.3749 18.0488 24.8777 18.728 26.1238C19.0918 24.9272 19.0514 23.6174 19.1322 22.3107C18.631 22.341 18.354 21.8579 18.0023 21.8205L18.0003 21.8195ZM17.0301 20.536C16.9978 20.8998 17.0806 21.0181 17.1544 21.4334C18.347 21.8074 18.1398 19.7962 17.0301 20.536ZM15.7062 20.1014C15.1907 19.8205 14.4196 19.5152 13.7556 19.3879C12.932 19.2302 13.0098 20.5097 13.0442 21.2748C13.0714 21.8791 13.3857 22.5179 13.5232 22.9221C13.5869 23.1101 13.602 23.3092 13.7617 23.3466C14.0447 23.4123 14.9805 23.0383 15.2473 22.8938C15.8113 22.5866 16.258 22.0984 16.7269 21.772L16.7451 21.294C16.4205 21.1319 16.0647 21.0419 15.7021 21.0302C15.9892 20.8857 16.4096 20.8887 16.6723 20.727L16.6794 20.535C16.2024 20.4986 16.0205 20.2864 15.7062 20.1146V20.1014ZM10.7945 19.209C10.368 19.6436 11.9911 20.2328 12.5085 20.2651C12.5055 19.9923 12.6652 19.7325 12.6328 19.5355C12.0184 19.4273 11.2119 19.4991 10.7935 19.209H10.7945ZM16.0518 19.4112C16.0498 19.4536 15.9942 19.4384 15.9851 19.4718C16.5339 19.9013 16.9422 19.9892 17.689 19.9529L18.6754 19.1929C17.8669 19.2636 16.8502 19.7669 16.0508 19.4101L16.0518 19.4112ZM20.8776 20.8746C20.8544 20.3935 20.728 19.4031 20.4309 19.2302C19.8063 18.8664 18.6967 19.966 18.2257 20.1338C18.2762 20.2813 18.3611 20.3965 18.3672 20.5855C18.6561 20.5226 18.9577 20.5567 19.2252 20.6825C18.9463 20.7129 18.637 20.7129 18.4531 20.8442C18.3854 21.0393 18.4693 21.3061 18.4248 21.577C19.0868 21.7639 19.8417 21.863 20.6785 21.8872C20.8402 21.675 20.8968 21.2728 20.8776 20.8735V20.8746ZM10.0759 19.6284C9.94149 19.5324 9.03495 18.353 8.91064 18.4025C7.27038 19.0493 5.73724 20.1681 4.3658 21.2263C5.67256 24.0308 6.20112 27.4659 6.29208 30.7778C7.78782 31.4782 9.10468 32.4878 11.1361 32.5929L10.5529 27.8793C10.0426 27.664 9.30984 27.8894 8.83282 27.8126C8.82878 27.2365 9.5625 27.5599 9.62314 27.1739C9.66963 26.8707 9.21889 26.8585 9.36543 26.3977C9.73937 26.5331 9.93543 26.8323 10.3336 26.9455C10.6975 26.1491 10.3286 24.7403 10.3811 24.0753C10.3912 23.9499 10.4438 23.383 10.7247 23.483C10.9723 23.5709 10.7106 24.9919 10.7379 25.6215C10.7621 26.2016 10.6671 26.7635 10.9026 27.1375C12.8653 26.8707 14.8603 26.6979 16.9846 26.6392C16.5177 26.4391 15.9619 26.2491 15.3535 25.9055C15.024 25.7196 13.983 25.3325 13.888 25.0192C13.7364 24.5199 14.2862 24.2541 14.3812 23.8266C13.3908 24.3673 13.1968 23.3082 12.9623 22.5583C12.7602 21.8791 12.6288 21.3718 12.5782 20.9797C11.7243 20.5724 10.8117 20.1712 10.0769 19.6385L10.0759 19.6284ZM20.0105 18.545C21.3769 17.8821 21.6235 21.0211 21.0878 22.0338C21.1707 22.3349 21.4557 22.4512 21.5729 22.721L19.1848 26.713C19.7639 26.3522 20.5896 26.6483 21.2718 26.3795C21.5204 26.2815 21.7013 25.7105 21.8882 25.2547C22.4067 23.9995 22.9514 22.4178 23.194 21.2202C23.2486 20.9473 23.3981 20.3531 23.3658 20.1105C23.3052 19.6759 22.716 19.3525 22.4158 19.0847L20.9362 17.686C20.7038 18.0316 20.2005 18.2621 20.0095 18.545H20.0105ZM6.94899 6.42344C6.29814 7.14099 6.44367 8.48312 6.5124 9.43818C7.68979 8.69738 9.25123 9.49679 9.23708 10.756C9.79899 10.7409 9.44729 10.0537 9.34522 9.61099C9.01171 8.16578 9.90511 6.59424 9.38564 5.27233C8.37703 5.34913 7.54931 5.76046 6.94798 6.42243L6.94899 6.42344ZM11.608 2.26466C10.1325 2.68307 8.24261 3.75435 7.63825 5.07828C8.10718 5.01057 8.43261 4.77307 8.89548 4.74477C9.07032 4.73467 9.29974 4.81855 9.50187 4.76802C9.90208 4.66897 10.2396 3.77052 10.5428 3.43599C10.8379 3.10956 11.1917 2.9711 11.4342 2.67296C11.5898 2.59817 11.8203 2.60222 11.8284 2.36977C11.7606 2.29903 11.6899 2.24243 11.609 2.26567L11.608 2.26466ZM19.2838 2.65881C17.7537 1.79573 15.1635 1.14589 13.5353 1.95743C12.2215 2.61232 10.4458 3.69573 9.84043 5.0702C10.4064 6.39413 9.67266 7.60993 9.62617 8.95509C9.60091 9.67062 9.96373 10.2962 9.99 11.0754C9.79798 11.3948 9.20575 11.4342 8.79745 11.412C8.66 10.7227 8.41846 9.94653 7.70899 9.86972C6.70442 9.75855 5.9707 10.5913 5.92421 11.4605C5.87064 12.4812 6.70846 14.175 7.89798 14.0578C8.35681 14.0123 8.47 13.5525 8.96926 13.5565C9.24011 14.0972 8.55086 14.268 8.48011 14.6541C8.46192 14.7551 8.53772 15.1442 8.58117 15.3282C8.79745 16.2206 9.28862 17.3747 9.75352 18.0539C10.3548 18.9149 11.5363 19.0443 12.8077 19.1292C13.0351 18.64 13.8709 18.6805 14.4146 18.8078C13.7617 18.5491 13.1543 17.9225 12.651 17.3676C12.0729 16.7309 11.4888 16.0477 11.4585 15.215C12.55 16.7309 13.4525 18.0549 15.4404 18.7199C16.9432 19.2252 18.6977 18.4874 19.8528 17.6789C20.3319 17.3424 20.6179 16.8067 20.9585 16.3176C22.2319 14.4843 22.8281 11.8688 22.6968 9.33206C22.6432 8.28605 22.6462 7.24408 22.2945 6.54067C21.9277 5.80493 20.6775 5.14599 19.96 5.81302C19.8255 5.09748 20.5633 4.65483 21.4314 4.91355C20.8129 4.10504 20.1641 3.15504 19.2848 2.65982L19.2838 2.65881ZM22.1338 26.2552C23.3294 25.6609 25.5639 24.6554 26.3138 26.2572C26.5907 26.8474 26.9152 27.8459 27.0587 28.4564C27.2608 29.3154 26.8394 31.1245 25.9551 31.4135C25.1738 31.6682 24.2632 31.653 23.3223 31.464C23.1904 31.3449 23.0818 31.2024 23.002 31.0436C22.3299 31.0173 21.7013 31.08 21.1707 31.3569C21.2212 31.8521 20.8847 31.933 20.5704 32.036C20.3379 32.9618 21.0373 34.1705 20.8695 35.0154C20.7503 35.6167 20.0105 35.7097 19.4647 35.8219C19.4465 36.1554 19.489 36.4354 19.5254 36.7183C19.4011 37.1762 18.8432 37.4379 18.3146 37.5016C16.5763 37.7108 13.9355 37.8048 12.2629 37.2034C11.796 36.0584 11.4281 34.6667 11.0502 33.359C9.41899 33.5328 8.0991 32.6556 6.85601 32.0795C6.42548 31.8794 5.82921 31.7703 5.66851 31.4266C5.51288 31.0951 5.57756 30.4584 5.53713 29.8581C5.4391 28.324 5.35522 26.8434 4.94894 25.2718C4.76703 24.5664 4.44968 23.9449 4.22835 23.2657C4.02421 22.6361 3.66644 21.8579 3.57346 21.2303C3.435 20.3005 4.31123 20.248 4.87213 19.8457C5.73825 19.2222 6.41841 18.8775 7.35628 18.3146C7.63421 18.1479 8.47203 17.7264 8.56703 17.5314C8.75601 17.1473 8.2416 16.6016 8.10415 16.3014C7.88687 15.8244 7.77266 15.4181 7.74032 14.9472C6.95203 14.8229 6.35575 14.3549 5.99697 13.8254C5.39059 12.9512 4.98633 11.3341 5.50176 10.1042C5.54218 10.0072 5.74431 9.81716 5.77463 9.66759C5.83325 9.3644 5.66346 8.98541 5.65336 8.67312C5.59878 7.07429 5.92421 5.69679 6.99953 5.21472C7.43612 3.4744 9.00059 2.8953 10.4731 2.03121C11.0239 1.7078 11.6313 1.50163 12.2579 1.2702C14.5065 0.441472 17.9579 0.598123 19.8235 2.00998C20.6148 2.60828 21.8802 3.87259 22.3329 4.78722C23.5285 7.21275 23.4446 11.2412 22.6058 14.1791C22.4946 14.5833 22.3309 15.1533 22.1025 15.6273C21.9438 15.9578 21.4506 16.6208 21.5103 16.9129C21.5709 17.216 22.6351 18.0215 22.8625 18.2418C23.2728 18.638 24.052 19.1635 24.1157 19.6628C24.1834 20.1944 23.8812 20.9221 23.7286 21.4345L22.1379 26.2552" fill="#231F20"/>
<path fill-rule="evenodd" clip-rule="evenodd" d="M14.1578 14.4034C14.2224 14.3175 14.5792 14.1862 15.0774 14.4267C15.0774 14.4267 14.4862 14.5257 14.5347 15.5111L14.2881 15.4606C14.2881 15.4606 14.0335 14.5662 14.1567 14.4024" fill="#F7E4CD"/>
<path fill-rule="evenodd" clip-rule="evenodd" d="M18.4802 22.8807C18.4802 23.0303 18.3589 23.1516 18.2093 23.1516C18.0598 23.1516 17.9385 23.0303 17.9385 22.8807C17.9385 22.7311 18.0598 22.6098 18.2093 22.6098C18.3589 22.6098 18.4802 22.7311 18.4802 22.8807ZM18.751 24.1369C18.751 24.2865 18.6298 24.4078 18.4802 24.4078C18.3306 24.4078 18.2093 24.2865 18.2093 24.1369C18.2093 23.9873 18.3306 23.8661 18.4802 23.8661C18.6298 23.8661 18.751 23.9873 18.751 24.1369Z" fill="#1D1919"/>
<path d="M30.2986 26.0783V24.4411H31.2042C31.2311 24.8777 31.3332 25.1984 31.5104 25.4032C31.6923 25.6074 31.9594 25.7094 32.3118 25.7094C32.7632 25.7094 33.0765 25.5353 33.2517 25.1869C33.4336 24.8501 33.5246 24.2019 33.5246 23.2425V14.0224H32.0127V13.1795H37.553V14.0224H36.222V23.2981C36.222 24.4273 35.9363 25.252 35.3649 25.7721C34.799 26.2922 33.8955 26.5523 32.6544 26.5523C32.269 26.5523 31.8809 26.5129 31.4902 26.4341C31.0994 26.3552 30.7019 26.2367 30.2976 26.0783H30.2986ZM43.8109 19.402C43.8109 18.4264 43.7199 17.7436 43.538 17.3535C43.3561 16.9587 43.0471 16.7612 42.6112 16.7612C42.1881 16.7612 41.8839 16.9539 41.6986 17.3393C41.5167 17.7247 41.4257 18.3705 41.4257 19.2767V19.402H43.8088H43.8109ZM46.5214 20.2308H41.4278V20.2863C41.4278 21.2431 41.572 21.9354 41.8603 22.3632C42.1487 22.7863 42.6136 22.9979 43.255 22.9979C43.7893 22.9979 44.2215 22.8564 44.5517 22.5734C44.8885 22.2904 45.1001 21.8795 45.1863 21.3404H46.3435C46.1434 22.1813 45.7459 22.7991 45.151 23.194C44.556 23.5888 43.7239 23.7862 42.6547 23.7862C41.3725 23.7862 40.3875 23.4493 39.6996 22.7756C39.0164 22.0971 38.6748 21.1302 38.6748 19.875C38.6748 18.6488 39.0251 17.692 39.7259 17.0048C40.4266 16.3176 41.4022 15.974 42.6527 15.974C43.8789 15.974 44.8198 16.3364 45.4754 17.0614C46.1303 17.7823 46.4786 18.8395 46.5204 20.2328L46.5214 20.2308Z" fill="black"/>
<path d="M47.6655 23.5831V22.7402H48.7166V17.02H47.6655V16.1771H51.1846V17.2211C51.481 16.7798 51.8203 16.4614 52.2023 16.266C52.583 16.0639 53.0637 15.9629 53.6445 15.9629C54.4759 15.9629 55.1032 16.2088 55.5263 16.7006C55.9534 17.1884 56.167 17.9087 56.167 18.8614V22.7392H57.2262V23.5821H52.7996V22.7392H53.7091V18.8017C53.7091 18.1751 53.6283 17.7406 53.4666 17.498C53.3089 17.2521 53.0327 17.1291 52.6379 17.1291C52.1406 17.1291 51.7758 17.3127 51.5433 17.6799C51.3109 18.0424 51.1947 18.6208 51.1947 19.4152V22.7392H52.1002V23.5821H47.6736L47.6655 23.5831Z" fill="black"/>
<path d="M62.4885 23.5831H58.0366V22.7402H59.0877V13.5757H58.0366V12.7399H61.5557V19.7133L64.5451 17.0301H63.6598V16.1872H67.0394V17.0301H65.6669L63.7467 18.7441L66.8797 22.7513H67.6811V23.5942H63.4304V22.7513H64.3016L62.2459 20.1105L61.5557 20.724V22.7392H62.4895V23.582L62.4885 23.5831ZM68.7544 14.078C68.7544 13.7007 68.8845 13.3847 69.1445 13.13C69.4046 12.87 69.723 12.7399 70.0996 12.7399C70.4668 12.7399 70.7781 12.87 71.0334 13.13C71.2935 13.3861 71.4235 13.702 71.4235 14.078C71.4235 14.4452 71.2935 14.7585 71.0334 15.0179C70.7774 15.2739 70.4661 15.4019 70.0996 15.4019C69.7223 15.4019 69.4039 15.2739 69.1445 15.0179C68.8845 14.7619 68.7544 14.4486 68.7544 14.078V14.078ZM71.4528 22.7392H72.512V23.582H67.9308V22.7392H68.9818V17.019H67.9308V16.1761H71.4498V22.7392H71.4528Z" fill="black"/>
<path d="M73.3682 23.5831V22.7402H74.4192V17.02H73.3682V16.1771H76.8872V17.2211C77.1837 16.7798 77.5229 16.4614 77.9049 16.266C78.2856 16.0639 78.7663 15.9629 79.3471 15.9629C80.1785 15.9629 80.8058 16.2088 81.2289 16.7006C81.6561 17.1884 81.8697 17.9087 81.8697 18.8614V22.7392H82.9288V23.5821H78.5022V22.7392H79.4118V18.8017C79.4118 18.1751 79.3309 17.7406 79.1692 17.498C79.0116 17.2521 78.7353 17.1291 78.3405 17.1291C77.8433 17.1291 77.4784 17.3127 77.246 17.6799C77.0135 18.0424 76.8973 18.6208 76.8973 19.4152V22.7392H77.8028V23.5821H73.3762L73.3682 23.5831Z" fill="black"/>
<path d="M83.9192 23.3678V21.298H84.7075C84.7728 21.8505 84.9797 22.2733 85.328 22.5664C85.6764 22.8548 86.1503 22.9989 86.75 22.9989C87.2519 22.9989 87.6353 22.913 87.9001 22.7412C88.1696 22.5647 88.3044 22.3137 88.3044 21.9883C88.3044 21.6918 88.2184 21.4618 88.0466 21.298C87.8795 21.1363 87.5521 20.9948 87.0643 20.8736L86.0466 20.6159C85.2798 20.4252 84.7247 20.1533 84.3811 19.8003C84.0442 19.4432 83.8757 18.9625 83.8757 18.3581C83.8757 17.5543 84.1543 16.9573 84.7115 16.5672C85.2687 16.1724 86.1278 15.975 87.2887 15.975C87.7253 15.975 88.1902 16.0087 88.6833 16.0761C89.1806 16.1455 89.7287 16.2566 90.3276 16.4096V18.2772H89.5394C89.4976 17.7706 89.3163 17.3899 88.9956 17.1352C88.679 16.8792 88.2235 16.7512 87.6292 16.7512C87.1273 16.7512 86.7466 16.832 86.4872 16.9937C86.2312 17.1514 86.1032 17.3872 86.1032 17.7012C86.1032 17.9518 86.1773 18.1492 86.3255 18.2934C86.4738 18.4376 86.7409 18.5589 87.127 18.6572L88.1376 18.915C89.1078 19.1609 89.7792 19.4651 90.1518 19.8276C90.5237 20.19 90.7097 20.694 90.7097 21.3395C90.7097 22.1749 90.4065 22.7928 89.8001 23.193C89.2052 23.5878 88.2787 23.7852 87.0208 23.7852C86.5607 23.7852 86.0729 23.7505 85.5574 23.6811C85.042 23.6117 84.4963 23.5107 83.9202 23.3779L83.9192 23.3678Z" fill="black"/>
</g>
<defs>
<clipPath id="clip0_126_12183">
<rect width="90.5532" height="38" fill="white" transform="translate(0.723389)"/>
</clipPath>
</defs>
</svg>
